%!PS-Adobe-3.0 EPSF-3.0
%%BoundingBox: 166 266 445 525
%%HiResBoundingBox: 166.175068 266.844094 444.824932 524.155906
%%Creator: Asymptote 2.442.44
%%CreationDate: 2018.10.06 14:48:12
%%Pages: 1
%%Page: 1 1
/Setlinewidth {0 exch dtransform dup abs 1 lt {pop 0}{round} ifelse
idtransform setlinewidth pop} bind def
gsave
 292.8401 349.864453 translate
newpath -1.19803777e-13 159.321546 moveto
 -1.13686838e-13 -3.50662602e-13 lineto
0 setgray
0.5 Setlinewidth
1 setlinecap
1 setlinejoin
10 setmiterlimit
stroke
newpath -1.20792265e-13 166.821546 moveto
 -2.00961894 159.321546 lineto
 2.00961894 159.321546 lineto
 -1.20792265e-13 166.821546 lineto
closepath
fill
newpath -1.20792265e-13 166.821546 moveto
 -2.00961894 159.321546 lineto
 2.00961894 159.321546 lineto
 -1.20792265e-13 166.821546 lineto
closepath
stroke
newpath 4.44321297 -1.05976813 moveto
 -4.41085087 1.05204932 lineto
stroke
newpath 4.52393349 52.7154115 moveto
 -4.4903893 54.4665765 lineto
stroke
newpath 4.6076412 108.480628 moveto
 -4.57284895 109.842868 lineto
stroke
newpath 4.69450506 166.348431 moveto
 -4.65839376 167.291021 lineto
stroke
newpath 2.23746398 26.0721859 moveto
 -2.22922777 27.0396166 lineto
stroke
newpath 2.27840778 80.7347218 moveto
 -2.26986795 81.5149057 lineto
stroke
newpath 2.32087799 137.43511 moveto
 -2.31201744 138.013313 lineto
stroke
newpath -7.20967181 2.67049446 moveto
 -7.20967181 3.66113046 -7.26904781 4.62518646 -7.69873181 5.53143846 curveto
 -8.18779181 6.52206246 -9.04561181 6.78300246 -9.62998781 6.78300246 curveto
 -10.3206118 6.78300246 -11.1674878 6.43769046 -11.6081086 5.44862646 curveto
 -11.942485 4.69706646 -12.0612322 3.95799846 -12.0612322 2.67049446 curveto
 -12.0612322 1.51425846 -11.9784202 0.643934463 -11.548735 -0.201371937 curveto
 -11.0846758 -1.10762646 -10.2612358 -1.39356354 -9.64247981 -1.39356354 curveto
 -8.60498381 -1.39356354 -8.00810381 -0.773246337 -7.66279181 -0.0826235369 curveto
 -7.23310781 0.811130463 -7.20967181 1.97987046 -7.20967181 2.67049446 curveto
closepath
 -9.64247981 -1.15606146 moveto
 -10.0237318 -1.15606146 -10.7987398 -0.940436337 -11.0237398 0.357998463 curveto
 -11.1549838 1.07363046 -11.1549838 1.97987046 -11.1549838 2.81425446 curveto
 -11.1549838 3.79081446 -11.1549838 4.67363046 -10.9643518 5.37675846 curveto
 -10.7627998 6.17519046 -10.1549878 6.54549846 -9.64247981 6.54549846 curveto
 -9.18935981 6.54549846 -8.49717581 6.27049446 -8.27060381 5.24550246 curveto
 -8.11592381 4.56581046 -8.11592381 3.62519046 -8.11592381 2.81425446 curveto
 -8.11592381 2.01581046 -8.11592381 1.10955846 -8.24716781 0.382994463 curveto
 -8.47373981 -0.929501937 -9.22373981 -1.15606146 -9.64247981 -1.15606146 curveto
closepath
fill
newpath -18.6157462 57.3086917 moveto
 -18.6157462 58.2993277 -18.6751222 59.2633837 -19.1048062 60.1696357 curveto
 -19.5938662 61.1602597 -20.4516862 61.4211997 -21.0360622 61.4211997 curveto
 -21.7266862 61.4211997 -22.5735622 61.0758877 -23.014183 60.0868237 curveto
 -23.3485594 59.3352637 -23.4673066 58.5961957 -23.4673066 57.3086917 curveto
 -23.4673066 56.1524557 -23.3844946 55.2821317 -22.9548094 54.4368253 curveto
 -22.4907502 53.5305708 -21.6673102 53.2446337 -21.0485542 53.2446337 curveto
 -20.0110582 53.2446337 -19.4141782 53.8649509 -19.0688662 54.5555737 curveto
 -18.6391822 55.4493277 -18.6157462 56.6180677 -18.6157462 57.3086917 curveto
closepath
 -21.0485542 53.4821358 moveto
 -21.4298062 53.4821358 -22.2048142 53.6977609 -22.4298142 54.9961957 curveto
 -22.5610582 55.7118277 -22.5610582 56.6180677 -22.5610582 57.4524517 curveto
 -22.5610582 58.4290117 -22.5610582 59.3118277 -22.3704262 60.0149557 curveto
 -22.1688742 60.8133877 -21.5610622 61.1836957 -21.0485542 61.1836957 curveto
 -20.5954342 61.1836957 -19.9032502 60.9086917 -19.6766782 59.8836997 curveto
 -19.5219982 59.2040077 -19.5219982 58.2633877 -19.5219982 57.4524517 curveto
 -19.5219982 56.6540077 -19.5219982 55.7477557 -19.6532422 55.0211917 curveto
 -19.8798142 53.7086953 -20.6298142 53.4821358 -21.0485542 53.4821358 curveto
closepath
 -15.7516822 53.4461958 moveto
 -15.7516822 54.1383853 -15.9782422 54.6508837 -16.4673142 54.6508837 curveto
 -16.8485542 54.6508837 -17.0391862 54.3415081 -17.0391862 54.0790081 curveto
 -17.0391862 53.8165081 -16.8610582 53.4946382 -16.4548102 53.4946382 curveto
 -16.3001182 53.4946382 -16.1688742 53.5430732 -16.0626142 53.6493253 curveto
 -16.0376182 53.6727637 -16.0266862 53.6727637 -16.0141822 53.6727637 curveto
 -15.9907462 53.6727637 -15.9907462 53.5071333 -15.9907462 53.4461958 curveto
 -15.9907462 53.0540137 -16.0626142 52.2790117 -16.7532502 51.5040157 curveto
 -16.8844942 51.3602557 -16.8844942 51.3368197 -16.8844942 51.3133837 curveto
 -16.8844942 51.2540077 -16.8251182 51.1946317 -16.7657422 51.1946317 curveto
 -16.6704262 51.1946317 -15.7516822 52.0758877 -15.7516822 53.4461958 curveto
closepath
 -8.49389024 61.2555757 moveto
 -8.49389024 61.4805757 -8.49389024 61.5415117 -8.66105024 61.5415117 curveto
 -8.75633024 61.5415117 -8.79233024 61.5415117 -8.88761024 61.3977637 curveto
 -12.4751182 55.8305677 lineto
 -12.4751182 55.4852557 lineto
 -9.34073024 55.4852557 lineto
 -9.34073024 54.4008853 lineto
 -9.34073024 53.9602609 -9.36413024 53.8399453 -10.2344902 53.8399453 curveto
 -10.4719702 53.8399453 lineto
 -10.4719702 53.4946382 lineto
 -10.1986102 53.5180756 -9.25637024 53.5180756 -8.92361024 53.5180756 curveto
 -8.58917024 53.5180756 -7.63601024 53.5180756 -7.36109024 53.4946382 curveto
 -7.36109024 53.8399453 lineto
 -7.60013024 53.8399453 lineto
 -8.45789024 53.8399453 -8.49389024 53.9602609 -8.49389024 54.4008853 curveto
 -8.49389024 55.4852557 lineto
 -7.28921024 55.4852557 lineto
 -7.28921024 55.8305677 lineto
 -8.49389024 55.8305677 lineto
 -8.49389024 61.2555757 lineto
closepath
 -9.27977024 60.3243277 moveto
 -9.27977024 55.8305677 lineto
 -12.1766782 55.8305677 lineto
 -9.27977024 60.3243277 lineto
closepath
fill
newpath -18.5310459 112.730791 moveto
 -18.5310459 113.721427 -18.5904219 114.685483 -19.0201059 115.591735 curveto
 -19.5091659 116.582359 -20.3669859 116.843299 -20.9513619 116.843299 curveto
 -21.6419859 116.843299 -22.4888619 116.497987 -22.9294827 115.508923 curveto
 -23.2638591 114.757363 -23.3826063 114.018295 -23.3826063 112.730791 curveto
 -23.3826063 111.574555 -23.2997943 110.704231 -22.8701091 109.858925 curveto
 -22.4060499 108.95267 -21.5826099 108.666733 -20.9638539 108.666733 curveto
 -19.9263579 108.666733 -19.3294779 109.28705 -18.9841659 109.977673 curveto
 -18.5544819 110.871427 -18.5310459 112.040167 -18.5310459 112.730791 curveto
closepath
 -20.9638539 108.904235 moveto
 -21.3451059 108.904235 -22.1201139 109.11986 -22.3451139 110.418295 curveto
 -22.4763579 111.133927 -22.4763579 112.040167 -22.4763579 112.874551 curveto
 -22.4763579 113.851111 -22.4763579 114.733927 -22.2857259 115.437055 curveto
 -22.0841739 116.235487 -21.4763619 116.605795 -20.9638539 116.605795 curveto
 -20.5107339 116.605795 -19.8185499 116.330791 -19.5919779 115.305799 curveto
 -19.4372979 114.626107 -19.4372979 113.685487 -19.4372979 112.874551 curveto
 -19.4372979 112.076107 -19.4372979 111.169855 -19.5685419 110.443291 curveto
 -19.7951139 109.130795 -20.5451139 108.904235 -20.9638539 108.904235 curveto
closepath
 -15.6669819 108.868295 moveto
 -15.6669819 109.560485 -15.8935419 110.072983 -16.3826139 110.072983 curveto
 -16.7638539 110.072983 -16.9544859 109.763608 -16.9544859 109.501108 curveto
 -16.9544859 109.238608 -16.7763579 108.916738 -16.3701099 108.916738 curveto
 -16.2154179 108.916738 -16.0841739 108.965173 -15.9779139 109.071425 curveto
 -15.9529179 109.094863 -15.9419859 109.094863 -15.9294819 109.094863 curveto
 -15.9060459 109.094863 -15.9060459 108.929233 -15.9060459 108.868295 curveto
 -15.9060459 108.476113 -15.9779139 107.701111 -16.6685499 106.926115 curveto
 -16.7997939 106.782355 -16.7997939 106.758919 -16.7997939 106.735483 curveto
 -16.7997939 106.676107 -16.7404179 106.616731 -16.6810419 106.616731 curveto
 -16.5857259 106.616731 -15.6669819 107.497987 -15.6669819 108.868295 curveto
closepath
 -9.16074989 113.219863 moveto
 -8.56386989 113.541727 -7.69350989 114.090175 -7.69350989 115.091731 curveto
 -7.69350989 116.129227 -8.69514989 116.843299 -9.79194989 116.843299 curveto
 -10.9716699 116.843299 -11.9013579 115.972987 -11.9013579 114.888607 curveto
 -11.9013579 114.483919 -11.7826299 114.077671 -11.4481899 113.672983 curveto
 -11.3170299 113.518291 -11.3059899 113.505799 -10.4716299 112.921423 curveto
 -11.6279499 112.385491 -12.2232339 111.587047 -12.2232339 110.716735 curveto
 -12.2232339 109.452673 -11.0201499 108.666733 -9.80442989 108.666733 curveto
 -8.48106989 108.666733 -7.37166989 109.6433 -7.37166989 110.894863 curveto
 -7.37166989 112.112047 -8.22942989 112.647991 -9.16074989 113.219863 curveto
closepath
 -10.7809899 114.293299 moveto
 -10.9357899 114.399547 -11.4123099 114.710491 -11.4123099 115.294855 curveto
 -11.4123099 116.068291 -10.6029099 116.557363 -9.80442989 116.557363 curveto
 -8.94510989 116.557363 -8.18262989 115.938607 -8.18262989 115.079227 curveto
 -8.18262989 114.352675 -8.70762989 113.768299 -9.39822989 113.387047 curveto
 -10.7809899 114.293299 lineto
closepath
 -10.2216699 112.755799 moveto
 -8.77794989 111.813607 lineto
 -8.46858989 111.610483 -7.92006989 111.241735 -7.92006989 110.513611 curveto
 -7.92006989 109.60736 -8.83890989 108.98861 -9.79194989 108.98861 curveto
 -10.8045099 108.98861 -11.6747499 109.727675 -11.6747499 110.716735 curveto
 -11.6747499 111.646423 -10.9950699 112.397983 -10.2216699 112.755799 curveto
closepath
fill
newpath -20.4291187 174.005516 moveto
 -20.4291187 174.280508 -20.4291187 174.291452 -20.6666227 174.291452 curveto
 -20.9541187 173.969576 -21.5494387 173.528948 -22.7775583 173.528948 curveto
 -22.7775583 173.183636 lineto
 -22.5025627 173.183636 -21.9072427 173.183636 -21.2509987 173.493008 curveto
 -21.2509987 167.282073 lineto
 -21.2509987 166.853951 -21.2869387 166.710198 -22.3353787 166.710198 curveto
 -22.7056855 166.710198 lineto
 -22.7056855 166.364891 lineto
 -22.3838107 166.388328 -21.2275627 166.388328 -20.8338067 166.388328 curveto
 -20.4400627 166.388328 -19.2963067 166.388328 -18.9744307 166.364891 curveto
 -18.9744307 166.710198 lineto
 -19.3447507 166.710198 lineto
 -20.3931787 166.710198 -20.4291187 166.853951 -20.4291187 167.282073 curveto
 -20.4291187 174.005516 lineto
closepath
 -15.6572467 166.316448 moveto
 -15.6572467 167.008638 -15.8838067 167.521136 -16.3728787 167.521136 curveto
 -16.7541187 167.521136 -16.9447507 167.211761 -16.9447507 166.949261 curveto
 -16.9447507 166.686761 -16.7666227 166.364891 -16.3603747 166.364891 curveto
 -16.2056827 166.364891 -16.0744387 166.413326 -15.9681787 166.519578 curveto
 -15.9431827 166.543016 -15.9322507 166.543016 -15.9197467 166.543016 curveto
 -15.8963107 166.543016 -15.8963107 166.377386 -15.8963107 166.316448 curveto
 -15.8963107 165.924266 -15.9681787 165.149264 -16.6588147 164.374268 curveto
 -16.7900587 164.230508 -16.7900587 164.207072 -16.7900587 164.183636 curveto
 -16.7900587 164.12426 -16.7306827 164.064884 -16.6713067 164.064884 curveto
 -16.5759907 164.064884 -15.6572467 164.94614 -15.6572467 166.316448 curveto
closepath
 -7.4572147 168.368012 moveto
 -7.7197747 168.368012 lineto
 -7.7556547 168.164888 -7.8510547 167.508641 -7.9697347 167.318013 curveto
 -8.0540947 167.211761 -8.7337747 167.211761 -9.0900547 167.211761 curveto
 -11.2962547 167.211761 lineto
 -10.9744147 167.485203 -10.2462547 168.2477 -9.9368947 168.533636 curveto
 -8.1244147 170.203952 -7.4572147 170.822708 -7.4572147 172.003952 curveto
 -7.4572147 173.374268 -8.5416547 174.291452 -9.9244147 174.291452 curveto
 -11.3072947 174.291452 -12.1181827 173.111768 -12.1181827 172.086764 curveto
 -12.1181827 171.478952 -11.5931347 171.478952 -11.5588147 171.478952 curveto
 -11.3072947 171.478952 -10.9978147 171.65708 -10.9978147 172.03832 curveto
 -10.9978147 172.3727 -11.2243747 172.59926 -11.5588147 172.59926 curveto
 -11.6650147 172.59926 -11.6900947 172.59926 -11.7244147 172.586768 curveto
 -11.4978547 173.397704 -10.8541747 173.94614 -10.0806547 173.94614 curveto
 -9.0666547 173.94614 -8.4462547 173.099264 -8.4462547 172.003952 curveto
 -8.4462547 170.98988 -9.0306547 170.108636 -9.7103347 169.344572 curveto
 -12.1181827 166.650828 lineto
 -12.1181827 166.364891 lineto
 -7.7681347 166.364891 lineto
 -7.4572147 168.368012 lineto
closepath
fill
newpath -37.4795344 169.622149 moveto
 -36.9670384 170.206531 -36.5498464 170.575267 -35.9545384 171.112771 curveto
 -35.2389064 171.731527 -34.9279744 172.029967 -34.7623504 172.208095 curveto
 -33.9279784 173.031523 -33.5107864 173.722147 -33.5107864 173.817463 curveto
 -33.5107864 173.912779 -33.6061024 173.912779 -33.6295384 173.912779 curveto
 -33.7123504 173.912779 -33.7373464 173.865895 -33.7967224 173.783095 curveto
 -34.0936024 173.269027 -34.3810984 173.019031 -34.6904704 173.019031 curveto
 -34.9404784 173.019031 -35.0717224 173.126839 -35.2982824 173.412775 curveto
 -35.5482904 173.711215 -35.7514144 173.912779 -36.0967264 173.912779 curveto
 -36.9670384 173.912779 -37.4920384 172.828399 -37.4920384 172.578403 curveto
 -37.4920384 172.542463 -37.4795344 172.470595 -37.3717264 172.470595 curveto
 -37.2764104 172.470595 -37.2654784 172.519027 -37.2295384 172.601839 curveto
 -37.0264144 173.078395 -36.4545424 173.162779 -36.2279704 173.162779 curveto
 -35.9779744 173.162779 -35.7389104 173.078395 -35.4889144 172.972147 curveto
 -35.0357824 172.781527 -34.8451624 172.781527 -34.7264104 172.781527 curveto
 -34.6420384 172.781527 -34.5951544 172.781527 -34.5357904 172.792459 curveto
 -34.9279744 172.328395 -35.5717264 171.756523 -36.1092184 171.267463 curveto
 -37.3123504 170.158087 lineto
 -38.040472 169.419027 -38.4810976 168.715902 -38.4810976 168.633087 curveto
 -38.4810976 168.561214 -38.4217228 168.537777 -38.3498476 168.537777 curveto
 -38.2779748 168.537777 -38.2670356 168.548712 -38.1826612 168.692464 curveto
 -37.9920376 168.990897 -37.6107904 169.431522 -37.1701624 169.431522 curveto
 -36.9201544 169.431522 -36.7998424 169.347147 -36.5623504 169.050275 curveto
 -36.3357904 168.787775 -36.1326544 168.537777 -35.7514144 168.537777 curveto
 -34.5826624 168.537777 -33.9154744 170.051839 -33.9154744 170.325271 curveto
 -33.9154744 170.373715 -33.9279784 170.444023 -34.0467184 170.444023 curveto
 -34.1420344 170.444023 -34.1545384 170.397151 -34.1889064 170.278399 curveto
 -34.4514064 169.573715 -35.1545344 169.287777 -35.6201584 169.287777 curveto
 -35.8701544 169.287777 -36.1092184 169.372152 -36.3592264 169.478397 curveto
 -36.8357824 169.669025 -36.9670384 169.669025 -37.1217184 169.669025 curveto
 -37.2420424 169.669025 -37.3717264 169.669025 -37.4795344 169.622149 curveto
closepath
fill
newpath 137.324554 -32.7538173 moveto
 -4.00554673e-13 6.84219712e-14 lineto
stroke
newpath 144.619911 -34.4938616 moveto
 137.790797 -30.799032 lineto
 136.85831 -34.7086025 lineto
 144.619911 -34.4938616 lineto
closepath
fill
newpath 144.619911 -34.4938616 moveto
 137.790797 -30.799032 lineto
 136.85831 -34.7086025 lineto
 144.619911 -34.4938616 lineto
closepath
stroke
newpath -4.01288038e-13 5.42136763 moveto
 -3.99823984e-13 -5.40158838 lineto
stroke
newpath 44.737003 -5.04878468 moveto
 44.5677792 -16.2303843 lineto
stroke
newpath 92.9055997 -16.3220598 moveto
 92.5407462 -27.8865511 lineto
stroke
newpath 144.916373 -28.4945497 moveto
 144.324661 -40.4686777 lineto
stroke
newpath 21.9424359 -2.4763088 moveto
 21.9016476 -7.9759899 lineto
stroke
newpath 68.3020836 -13.4300706 moveto
 68.1703544 -19.1149876 lineto
stroke
newpath 118.283678 -25.2396184 moveto
 118.046659 -31.1224994 lineto
stroke
newpath 2.4257802 -12.9364323 moveto
 2.4257802 -11.9457963 2.3664042 -10.9817403 1.9367202 -10.0754883 curveto
 1.4476602 -9.08486433 0.5898402 -8.82392433 0.0054642 -8.82392433 curveto
 -0.6851598 -8.82392433 -1.5320358 -9.16923633 -1.9726566 -10.1583003 curveto
 -2.307033 -10.9098603 -2.4257802 -11.6489283 -2.4257802 -12.9364323 curveto
 -2.4257802 -14.0926683 -2.3429682 -14.9629923 -1.913283 -15.8082987 curveto
 -1.4492238 -16.7145532 -0.6257838 -17.0004903 -0.0070278 -17.0004903 curveto
 1.0304682 -17.0004903 1.6273482 -16.3801731 1.9726602 -15.6895503 curveto
 2.4023442 -14.7957963 2.4257802 -13.6270563 2.4257802 -12.9364323 curveto
closepath
 -0.0070278 -16.7629882 moveto
 -0.3882798 -16.7629882 -1.1632878 -16.5473631 -1.3882878 -15.2489283 curveto
 -1.5195318 -14.5332963 -1.5195318 -13.6270563 -1.5195318 -12.7926723 curveto
 -1.5195318 -11.8161123 -1.5195318 -10.9332963 -1.3288998 -10.2301683 curveto
 -1.1273478 -9.43173633 -0.5195358 -9.06142833 -0.0070278 -9.06142833 curveto
 0.4460922 -9.06142833 1.1382762 -9.33643233 1.3648482 -10.3614243 curveto
 1.5195282 -11.0411163 1.5195282 -11.9817363 1.5195282 -12.7926723 curveto
 1.5195282 -13.5911163 1.5195282 -14.4973683 1.3882842 -15.2239323 curveto
 1.1617122 -16.5364287 0.4117122 -16.7629882 -0.0070278 -16.7629882 curveto
closepath
fill
newpath 41.3302914 -23.8855402 moveto
 41.3302914 -22.8949042 41.2709154 -21.9308482 40.8412314 -21.0245962 curveto
 40.3521714 -20.0339722 39.4943514 -19.7730322 38.9099754 -19.7730322 curveto
 38.2193514 -19.7730322 37.3724754 -20.1183442 36.9318546 -21.1074082 curveto
 36.5974782 -21.8589682 36.478731 -22.5980362 36.478731 -23.8855402 curveto
 36.478731 -25.0417762 36.561543 -25.9121002 36.9912282 -26.7574066 curveto
 37.4552874 -27.6636611 38.2787274 -27.9495982 38.8974834 -27.9495982 curveto
 39.9349794 -27.9495982 40.5318594 -27.329281 40.8771714 -26.6386582 curveto
 41.3068554 -25.7449042 41.3302914 -24.5761642 41.3302914 -23.8855402 curveto
closepath
 38.8974834 -27.7120961 moveto
 38.5162314 -27.7120961 37.7412234 -27.496471 37.5162234 -26.1980362 curveto
 37.3849794 -25.4824042 37.3849794 -24.5761642 37.3849794 -23.7417802 curveto
 37.3849794 -22.7652202 37.3849794 -21.8824042 37.5756114 -21.1792762 curveto
 37.7771634 -20.3808442 38.3849754 -20.0105362 38.8974834 -20.0105362 curveto
 39.3506034 -20.0105362 40.0427874 -20.2855402 40.2693594 -21.3105322 curveto
 40.4240394 -21.9902242 40.4240394 -22.9308442 40.4240394 -23.7417802 curveto
 40.4240394 -24.5402242 40.4240394 -25.4464762 40.2927954 -26.1730402 curveto
 40.0662234 -27.4855366 39.3162234 -27.7120961 38.8974834 -27.7120961 curveto
closepath
 44.1943554 -27.7480361 moveto
 44.1943554 -27.0558466 43.9677954 -26.5433482 43.4787234 -26.5433482 curveto
 43.0974834 -26.5433482 42.9068514 -26.8527238 42.9068514 -27.1152238 curveto
 42.9068514 -27.3777238 43.0849794 -27.6995937 43.4912274 -27.6995937 curveto
 43.6459194 -27.6995937 43.7771634 -27.6511587 43.8834234 -27.5449066 curveto
 43.9084194 -27.5214682 43.9193514 -27.5214682 43.9318554 -27.5214682 curveto
 43.9552914 -27.5214682 43.9552914 -27.6870986 43.9552914 -27.7480361 curveto
 43.9552914 -28.1402182 43.8834234 -28.9152202 43.1927874 -29.6902162 curveto
 43.0615434 -29.8339762 43.0615434 -29.8574122 43.0615434 -29.8808482 curveto
 43.0615434 -29.9402242 43.1209194 -29.9996002 43.1802954 -29.9996002 curveto
 43.2756114 -29.9996002 44.1943554 -29.1183442 44.1943554 -27.7480361 curveto
closepath
 51.4521474 -19.9386562 moveto
 51.4521474 -19.7136562 51.4521474 -19.6527202 51.2849874 -19.6527202 curveto
 51.1897074 -19.6527202 51.1537074 -19.6527202 51.0584274 -19.7964682 curveto
 47.4709194 -25.3636642 lineto
 47.4709194 -25.7089762 lineto
 50.6053074 -25.7089762 lineto
 50.6053074 -26.7933466 lineto
 50.6053074 -27.233971 50.5819074 -27.3542866 49.7115474 -27.3542866 curveto
 49.4740674 -27.3542866 lineto
 49.4740674 -27.6995937 lineto
 49.7474274 -27.6761562 50.6896674 -27.6761562 51.0224274 -27.6761562 curveto
 51.3568674 -27.6761562 52.3100274 -27.6761562 52.5849474 -27.6995937 curveto
 52.5849474 -27.3542866 lineto
 52.3459074 -27.3542866 lineto
 51.4881474 -27.3542866 51.4521474 -27.233971 51.4521474 -26.7933466 curveto
 51.4521474 -25.7089762 lineto
 52.6568274 -25.7089762 lineto
 52.6568274 -25.3636642 lineto
 51.4521474 -25.3636642 lineto
 51.4521474 -19.9386562 lineto
closepath
 50.6662674 -20.8699042 moveto
 50.6662674 -25.3636642 lineto
 47.7693594 -25.3636642 lineto
 50.6662674 -20.8699042 lineto
closepath
fill
newpath 89.3868384 -35.421395 moveto
 89.3868384 -34.430759 89.3274624 -33.466703 88.8977784 -32.560451 curveto
 88.4087184 -31.569827 87.5508984 -31.308887 86.9665224 -31.308887 curveto
 86.2758984 -31.308887 85.4290224 -31.654199 84.9884016 -32.643263 curveto
 84.6540252 -33.394823 84.535278 -34.133891 84.535278 -35.421395 curveto
 84.535278 -36.577631 84.61809 -37.447955 85.0477752 -38.2932614 curveto
 85.5118344 -39.1995159 86.3352744 -39.485453 86.9540304 -39.485453 curveto
 87.9915264 -39.485453 88.5884064 -38.8651358 88.9337184 -38.174513 curveto
 89.3634024 -37.280759 89.3868384 -36.112019 89.3868384 -35.421395 curveto
closepath
 86.9540304 -39.2479509 moveto
 86.5727784 -39.2479509 85.7977704 -39.0323258 85.5727704 -37.733891 curveto
 85.4415264 -37.018259 85.4415264 -36.112019 85.4415264 -35.277635 curveto
 85.4415264 -34.301075 85.4415264 -33.418259 85.6321584 -32.715131 curveto
 85.8337104 -31.916699 86.4415224 -31.546391 86.9540304 -31.546391 curveto
 87.4071504 -31.546391 88.0993344 -31.821395 88.3259064 -32.846387 curveto
 88.4805864 -33.526079 88.4805864 -34.466699 88.4805864 -35.277635 curveto
 88.4805864 -36.076079 88.4805864 -36.982331 88.3493424 -37.708895 curveto
 88.1227704 -39.0213914 87.3727704 -39.2479509 86.9540304 -39.2479509 curveto
closepath
 92.2509024 -39.2838909 moveto
 92.2509024 -38.5917014 92.0243424 -38.079203 91.5352704 -38.079203 curveto
 91.1540304 -38.079203 90.9633984 -38.3885786 90.9633984 -38.6510786 curveto
 90.9633984 -38.9135786 91.1415264 -39.2354485 91.5477744 -39.2354485 curveto
 91.7024664 -39.2354485 91.8337104 -39.1870135 91.9399704 -39.0807614 curveto
 91.9649664 -39.057323 91.9758984 -39.057323 91.9884024 -39.057323 curveto
 92.0118384 -39.057323 92.0118384 -39.2229534 92.0118384 -39.2838909 curveto
 92.0118384 -39.676073 91.9399704 -40.451075 91.2493344 -41.226071 curveto
 91.1180904 -41.369831 91.1180904 -41.393267 91.1180904 -41.416703 curveto
 91.1180904 -41.476079 91.1774664 -41.535455 91.2368424 -41.535455 curveto
 91.3321584 -41.535455 92.2509024 -40.654199 92.2509024 -39.2838909 curveto
closepath
 98.7571344 -34.932323 moveto
 99.3540144 -34.610459 100.224374 -34.062011 100.224374 -33.060455 curveto
 100.224374 -32.022959 99.2227344 -31.308887 98.1259344 -31.308887 curveto
 96.9462144 -31.308887 96.0165264 -32.179199 96.0165264 -33.263579 curveto
 96.0165264 -33.668267 96.1352544 -34.074515 96.4696944 -34.479203 curveto
 96.6008544 -34.633895 96.6118944 -34.646387 97.4462544 -35.230763 curveto
 96.2899344 -35.766695 95.6946504 -36.565139 95.6946504 -37.435451 curveto
 95.6946504 -38.699513 96.8977344 -39.485453 98.1134544 -39.485453 curveto
 99.4368144 -39.485453 100.546214 -38.5088858 100.546214 -37.257323 curveto
 100.546214 -36.040139 99.6884544 -35.504195 98.7571344 -34.932323 curveto
closepath
 97.1368944 -33.858887 moveto
 96.9820944 -33.752639 96.5055744 -33.441695 96.5055744 -32.857331 curveto
 96.5055744 -32.083895 97.3149744 -31.594823 98.1134544 -31.594823 curveto
 98.9727744 -31.594823 99.7352544 -32.213579 99.7352544 -33.072959 curveto
 99.7352544 -33.799511 99.2102544 -34.383887 98.5196544 -34.765139 curveto
 97.1368944 -33.858887 lineto
closepath
 97.6962144 -35.396387 moveto
 99.1399344 -36.338579 lineto
 99.4492944 -36.541703 99.9978144 -36.910451 99.9978144 -37.638575 curveto
 99.9978144 -38.5448258 99.0789744 -39.1635759 98.1259344 -39.1635759 curveto
 97.1133744 -39.1635759 96.2431344 -38.4245114 96.2431344 -37.435451 curveto
 96.2431344 -36.505763 96.9228144 -35.754203 97.6962144 -35.396387 curveto
closepath
fill
newpath 139.012929 -44.1769496 moveto
 139.012929 -43.9019576 139.012929 -43.8910136 138.775425 -43.8910136 curveto
 138.487929 -44.2128896 137.892609 -44.6535176 136.664489 -44.6535176 curveto
 136.664489 -44.9988296 lineto
 136.939485 -44.9988296 137.534805 -44.9988296 138.191049 -44.6894576 curveto
 138.191049 -50.9003924 lineto
 138.191049 -51.3285152 138.155109 -51.472268 137.106669 -51.472268 curveto
 136.736362 -51.472268 lineto
 136.736362 -51.8175751 lineto
 137.058237 -51.7941377 138.214485 -51.7941377 138.608241 -51.7941377 curveto
 139.001985 -51.7941377 140.145741 -51.7941377 140.467617 -51.8175751 curveto
 140.467617 -51.472268 lineto
 140.097297 -51.472268 lineto
 139.048869 -51.472268 139.012929 -51.3285152 139.012929 -50.9003924 curveto
 139.012929 -44.1769496 lineto
closepath
 143.784801 -51.8660175 moveto
 143.784801 -51.173828 143.558241 -50.6613296 143.069169 -50.6613296 curveto
 142.687929 -50.6613296 142.497297 -50.9707052 142.497297 -51.2332052 curveto
 142.497297 -51.4957052 142.675425 -51.8175751 143.081673 -51.8175751 curveto
 143.236365 -51.8175751 143.367609 -51.7691401 143.473869 -51.662888 curveto
 143.498865 -51.6394496 143.509797 -51.6394496 143.522301 -51.6394496 curveto
 143.545737 -51.6394496 143.545737 -51.80508 143.545737 -51.8660175 curveto
 143.545737 -52.2581996 143.473869 -53.0332016 142.783233 -53.8081976 curveto
 142.651989 -53.9519576 142.651989 -53.9753936 142.651989 -53.9988296 curveto
 142.651989 -54.0582056 142.711365 -54.1175816 142.770741 -54.1175816 curveto
 142.866057 -54.1175816 143.784801 -53.2363256 143.784801 -51.8660175 curveto
closepath
 151.984833 -49.8144536 moveto
 151.722273 -49.8144536 lineto
 151.686393 -50.0175776 151.590993 -50.6738252 151.472313 -50.8644524 curveto
 151.387953 -50.9707052 150.708273 -50.9707052 150.351993 -50.9707052 curveto
 148.145793 -50.9707052 lineto
 148.467633 -50.6972624 149.195793 -49.9347656 149.505153 -49.6488296 curveto
 151.317633 -47.9785136 151.984833 -47.3597576 151.984833 -46.1785136 curveto
 151.984833 -44.8081976 150.900393 -43.8910136 149.517633 -43.8910136 curveto
 148.134753 -43.8910136 147.323865 -45.0706976 147.323865 -46.0957016 curveto
 147.323865 -46.7035136 147.848913 -46.7035136 147.883233 -46.7035136 curveto
 148.134753 -46.7035136 148.444233 -46.5253856 148.444233 -46.1441456 curveto
 148.444233 -45.8097656 148.217673 -45.5832056 147.883233 -45.5832056 curveto
 147.777033 -45.5832056 147.751953 -45.5832056 147.717633 -45.5956976 curveto
 147.944193 -44.7847616 148.587873 -44.2363256 149.361393 -44.2363256 curveto
 150.375393 -44.2363256 150.995793 -45.0832016 150.995793 -46.1785136 curveto
 150.995793 -47.1925856 150.411393 -48.0738296 149.731713 -48.8378936 curveto
 147.323865 -51.531638 lineto
 147.323865 -51.8175751 lineto
 151.673913 -51.8175751 lineto
 151.984833 -49.8144536 lineto
closepath
fill
newpath 143.335549 -73.0114771 moveto
 143.013673 -73.4645971 142.549609 -73.8708571 141.965233 -73.8708571 curveto
 141.823045 -73.8708571 141.249609 -73.8458611 141.071483 -73.2989731 curveto
 141.107423 -73.3099171 141.166798 -73.3099171 141.190235 -73.3099171 curveto
 141.548053 -73.3099171 141.787117 -73.0005331 141.787117 -72.7255435 curveto
 141.787117 -72.4521007 141.560545 -72.3567907 141.380859 -72.3567907 curveto
 141.190235 -72.3567907 140.773048 -72.4989763 140.773048 -73.0833571 curveto
 140.773048 -73.6911691 141.285549 -74.1083611 141.965233 -74.1083611 curveto
 143.157421 -74.1083611 144.362113 -73.0114771 144.694921 -71.6896061 curveto
 145.863673 -67.0396051 lineto
 145.874617 -66.9802291 145.899613 -66.9083491 145.899613 -66.8380411 curveto
 145.899613 -66.6583531 145.755865 -66.5396011 145.577737 -66.5396011 curveto
 145.469929 -66.5396011 145.219921 -66.5864731 145.124617 -66.9442891 curveto
 144.241801 -70.4489731 lineto
 144.182425 -70.6646035 144.182425 -70.6880407 144.087109 -70.8192907 curveto
 143.849617 -71.1521035 143.455861 -71.5583561 142.883989 -71.5583561 curveto
 142.215229 -71.5583561 142.155865 -70.9021063 142.155865 -70.5802291 curveto
 142.155865 -69.9005371 142.477729 -68.9833531 142.799617 -68.1255331 curveto
 142.930861 -67.7786611 143.002729 -67.6114771 143.002729 -67.3739731 curveto
 143.002729 -66.8724211 142.644925 -66.4208491 142.060549 -66.4208491 curveto
 140.963672 -66.4208491 140.523046 -68.1489811 140.523046 -68.2442971 curveto
 140.523046 -68.2911691 140.571485 -68.3505331 140.654296 -68.3505331 curveto
 140.762109 -68.3505331 140.773048 -68.3036611 140.821486 -68.1364771 curveto
 141.107423 -67.1349211 141.560545 -66.6583531 142.024609 -66.6583531 curveto
 142.132429 -66.6583531 142.335553 -66.6583531 142.335553 -67.0520971 curveto
 142.335553 -67.3614811 142.204297 -67.7083531 142.024609 -68.1599131 curveto
 141.440233 -69.7224211 141.440233 -70.1161651 141.440233 -70.4021011 curveto
 141.440233 -71.5333507 142.251169 -71.7958512 142.848049 -71.7958512 curveto
 143.193361 -71.7958512 143.623045 -71.6896061 144.040237 -71.2474135 curveto
 144.051169 -71.2599163 lineto
 143.873053 -71.9630407 143.752729 -72.4286635 143.335549 -73.0114771 curveto
closepath
fill
newpath -112.227985 -41.8249004 moveto
 1.1580743e-13 8.5527464e-14 lineto
stroke
newpath -119.255804 -44.444014 moveto
 -111.526195 -43.7079989 lineto
 -112.929774 -39.9418019 lineto
 -119.255804 -44.444014 lineto
closepath
fill
newpath -119.255804 -44.444014 moveto
 -111.526195 -43.7079989 lineto
 -112.929774 -39.9418019 lineto
 -119.255804 -44.444014 lineto
closepath
stroke
newpath 1.16019459e-13 5.42136763 moveto
 1.15596175e-13 -5.40158838 lineto
stroke
newpath -36.1231669 -7.788302 moveto
 -35.9852574 -19.0632591 lineto
stroke
newpath -75.7776283 -22.2893101 moveto
 -75.4742438 -34.0551076 lineto
stroke
newpath -119.507808 -38.2807439 moveto
 -119.00486 -50.5813461 lineto
stroke
newpath -17.633814 -3.80192217 moveto
 -17.6008861 -9.32410315 lineto
stroke
newpath -55.4230271 -17.7531053 moveto
 -55.3146113 -23.5106995 lineto
stroke
newpath -96.9950501 -33.1008424 moveto
 -96.7958361 -39.1144985 lineto
stroke
newpath 2.4257802 -12.9364323 moveto
 2.4257802 -11.9457963 2.3664042 -10.9817403 1.9367202 -10.0754883 curveto
 1.4476602 -9.08486433 0.5898402 -8.82392433 0.0054642 -8.82392433 curveto
 -0.6851598 -8.82392433 -1.5320358 -9.16923633 -1.9726566 -10.1583003 curveto
 -2.307033 -10.9098603 -2.4257802 -11.6489283 -2.4257802 -12.9364323 curveto
 -2.4257802 -14.0926683 -2.3429682 -14.9629923 -1.913283 -15.8082987 curveto
 -1.4492238 -16.7145532 -0.6257838 -17.0004903 -0.0070278 -17.0004903 curveto
 1.0304682 -17.0004903 1.6273482 -16.3801731 1.9726602 -15.6895503 curveto
 2.4023442 -14.7957963 2.4257802 -13.6270563 2.4257802 -12.9364323 curveto
closepath
 -0.0070278 -16.7629882 moveto
 -0.3882798 -16.7629882 -1.1632878 -16.5473631 -1.3882878 -15.2489283 curveto
 -1.5195318 -14.5332963 -1.5195318 -13.6270563 -1.5195318 -12.7926723 curveto
 -1.5195318 -11.8161123 -1.5195318 -10.9332963 -1.3288998 -10.2301683 curveto
 -1.1273478 -9.43173633 -0.5195358 -9.06142833 -0.0070278 -9.06142833 curveto
 0.4460922 -9.06142833 1.1382762 -9.33643233 1.3648482 -10.3614243 curveto
 1.5195282 -11.0411163 1.5195282 -11.9817363 1.5195282 -12.7926723 curveto
 1.5195282 -13.5911163 1.5195282 -14.4973683 1.3882842 -15.2239323 curveto
 1.1617122 -16.5364287 0.4117122 -16.7629882 -0.0070278 -16.7629882 curveto
closepath
fill
newpath -39.2227452 -26.718415 moveto
 -39.2227452 -25.727779 -39.2821212 -24.763723 -39.7118052 -23.857471 curveto
 -40.2008652 -22.866847 -41.0586852 -22.605907 -41.6430612 -22.605907 curveto
 -42.3336852 -22.605907 -43.1805612 -22.951219 -43.621182 -23.940283 curveto
 -43.9555584 -24.691843 -44.0743056 -25.430911 -44.0743056 -26.718415 curveto
 -44.0743056 -27.874651 -43.9914936 -28.744975 -43.5618084 -29.5902814 curveto
 -43.0977492 -30.496536 -42.2743092 -30.782473 -41.6555532 -30.782473 curveto
 -40.6180572 -30.782473 -40.0211772 -30.1621558 -39.6758652 -29.471533 curveto
 -39.2461812 -28.577779 -39.2227452 -27.409039 -39.2227452 -26.718415 curveto
closepath
 -41.6555532 -30.544971 moveto
 -42.0368052 -30.544971 -42.8118132 -30.3293458 -43.0368132 -29.030911 curveto
 -43.1680572 -28.315279 -43.1680572 -27.409039 -43.1680572 -26.574655 curveto
 -43.1680572 -25.598095 -43.1680572 -24.715279 -42.9774252 -24.012151 curveto
 -42.7758732 -23.213719 -42.1680612 -22.843411 -41.6555532 -22.843411 curveto
 -41.2024332 -22.843411 -40.5102492 -23.118415 -40.2836772 -24.143407 curveto
 -40.1289972 -24.823099 -40.1289972 -25.763719 -40.1289972 -26.574655 curveto
 -40.1289972 -27.373099 -40.1289972 -28.279351 -40.2602412 -29.005915 curveto
 -40.4868132 -30.3184114 -41.2368132 -30.544971 -41.6555532 -30.544971 curveto
closepath
 -36.3586812 -30.580911 moveto
 -36.3586812 -29.8887214 -36.5852412 -29.376223 -37.0743132 -29.376223 curveto
 -37.4555532 -29.376223 -37.6461852 -29.6855986 -37.6461852 -29.9480986 curveto
 -37.6461852 -30.2105986 -37.4680572 -30.5324686 -37.0618092 -30.5324686 curveto
 -36.9071172 -30.5324686 -36.7758732 -30.4840335 -36.6696132 -30.3777814 curveto
 -36.6446172 -30.354343 -36.6336852 -30.354343 -36.6211812 -30.354343 curveto
 -36.5977452 -30.354343 -36.5977452 -30.5199734 -36.5977452 -30.580911 curveto
 -36.5977452 -30.973093 -36.6696132 -31.748095 -37.3602492 -32.523091 curveto
 -37.4914932 -32.666851 -37.4914932 -32.690287 -37.4914932 -32.713723 curveto
 -37.4914932 -32.773099 -37.4321172 -32.832475 -37.3727412 -32.832475 curveto
 -37.2774252 -32.832475 -36.3586812 -31.951219 -36.3586812 -30.580911 curveto
closepath
 -29.1008892 -22.771531 moveto
 -29.1008892 -22.546531 -29.1008892 -22.485595 -29.2680492 -22.485595 curveto
 -29.3633292 -22.485595 -29.3993292 -22.485595 -29.4946092 -22.629343 curveto
 -33.0821172 -28.196539 lineto
 -33.0821172 -28.541851 lineto
 -29.9477292 -28.541851 lineto
 -29.9477292 -29.6262214 lineto
 -29.9477292 -30.0668458 -29.9711292 -30.1871614 -30.8414892 -30.1871614 curveto
 -31.0789692 -30.1871614 lineto
 -31.0789692 -30.5324686 lineto
 -30.8056092 -30.5090311 -29.8633692 -30.5090311 -29.5306092 -30.5090311 curveto
 -29.1961692 -30.5090311 -28.2430092 -30.5090311 -27.9680892 -30.5324686 curveto
 -27.9680892 -30.1871614 lineto
 -28.2071292 -30.1871614 lineto
 -29.0648892 -30.1871614 -29.1008892 -30.0668458 -29.1008892 -29.6262214 curveto
 -29.1008892 -28.541851 lineto
 -27.8962092 -28.541851 lineto
 -27.8962092 -28.196539 lineto
 -29.1008892 -28.196539 lineto
 -29.1008892 -22.771531 lineto
closepath
 -29.8867692 -23.702779 moveto
 -29.8867692 -28.196539 lineto
 -32.7836772 -28.196539 lineto
 -29.8867692 -23.702779 lineto
closepath
fill
newpath -78.6281516 -41.5899516 moveto
 -78.6281516 -40.5993156 -78.6875276 -39.6352596 -79.1172116 -38.7290076 curveto
 -79.6062716 -37.7383836 -80.4640916 -37.4774436 -81.0484676 -37.4774436 curveto
 -81.7390916 -37.4774436 -82.5859676 -37.8227556 -83.0265884 -38.8118196 curveto
 -83.3609648 -39.5633796 -83.479712 -40.3024476 -83.479712 -41.5899516 curveto
 -83.479712 -42.7461876 -83.3969 -43.6165116 -82.9672148 -44.461818 curveto
 -82.5031556 -45.3680725 -81.6797156 -45.6540096 -81.0609596 -45.6540096 curveto
 -80.0234636 -45.6540096 -79.4265836 -45.0336924 -79.0812716 -44.3430696 curveto
 -78.6515876 -43.4493156 -78.6281516 -42.2805756 -78.6281516 -41.5899516 curveto
closepath
 -81.0609596 -45.4165075 moveto
 -81.4422116 -45.4165075 -82.2172196 -45.2008824 -82.4422196 -43.9024476 curveto
 -82.5734636 -43.1868156 -82.5734636 -42.2805756 -82.5734636 -41.4461916 curveto
 -82.5734636 -40.4696316 -82.5734636 -39.5868156 -82.3828316 -38.8836876 curveto
 -82.1812796 -38.0852556 -81.5734676 -37.7149476 -81.0609596 -37.7149476 curveto
 -80.6078396 -37.7149476 -79.9156556 -37.9899516 -79.6890836 -39.0149436 curveto
 -79.5344036 -39.6946356 -79.5344036 -40.6352556 -79.5344036 -41.4461916 curveto
 -79.5344036 -42.2446356 -79.5344036 -43.1508876 -79.6656476 -43.8774516 curveto
 -79.8922196 -45.189948 -80.6422196 -45.4165075 -81.0609596 -45.4165075 curveto
closepath
 -75.7640876 -45.4524475 moveto
 -75.7640876 -44.760258 -75.9906476 -44.2477596 -76.4797196 -44.2477596 curveto
 -76.8609596 -44.2477596 -77.0515916 -44.5571352 -77.0515916 -44.8196352 curveto
 -77.0515916 -45.0821352 -76.8734636 -45.4040051 -76.4672156 -45.4040051 curveto
 -76.3125236 -45.4040051 -76.1812796 -45.3555701 -76.0750196 -45.249318 curveto
 -76.0500236 -45.2258796 -76.0390916 -45.2258796 -76.0265876 -45.2258796 curveto
 -76.0031516 -45.2258796 -76.0031516 -45.3915099 -76.0031516 -45.4524475 curveto
 -76.0031516 -45.8446296 -76.0750196 -46.6196316 -76.7656556 -47.3946276 curveto
 -76.8968996 -47.5383876 -76.8968996 -47.5618236 -76.8968996 -47.5852596 curveto
 -76.8968996 -47.6446356 -76.8375236 -47.7040116 -76.7781476 -47.7040116 curveto
 -76.6828316 -47.7040116 -75.7640876 -46.8227556 -75.7640876 -45.4524475 curveto
closepath
 -69.2578556 -41.1008796 moveto
 -68.6609756 -40.7790156 -67.7906156 -40.2305676 -67.7906156 -39.2290116 curveto
 -67.7906156 -38.1915156 -68.7922556 -37.4774436 -69.8890556 -37.4774436 curveto
 -71.0687756 -37.4774436 -71.9984636 -38.3477556 -71.9984636 -39.4321356 curveto
 -71.9984636 -39.8368236 -71.8797356 -40.2430716 -71.5452956 -40.6477596 curveto
 -71.4141356 -40.8024516 -71.4030956 -40.8149436 -70.5687356 -41.3993196 curveto
 -71.7250556 -41.9352516 -72.3203396 -42.7336956 -72.3203396 -43.6040076 curveto
 -72.3203396 -44.8680696 -71.1172556 -45.6540096 -69.9015356 -45.6540096 curveto
 -68.5781756 -45.6540096 -67.4687756 -44.6774424 -67.4687756 -43.4258796 curveto
 -67.4687756 -42.2086956 -68.3265356 -41.6727516 -69.2578556 -41.1008796 curveto
closepath
 -70.8780956 -40.0274436 moveto
 -71.0328956 -39.9211956 -71.5094156 -39.6102516 -71.5094156 -39.0258876 curveto
 -71.5094156 -38.2524516 -70.7000156 -37.7633796 -69.9015356 -37.7633796 curveto
 -69.0422156 -37.7633796 -68.2797356 -38.3821356 -68.2797356 -39.2415156 curveto
 -68.2797356 -39.9680676 -68.8047356 -40.5524436 -69.4953356 -40.9336956 curveto
 -70.8780956 -40.0274436 lineto
closepath
 -70.3187756 -41.5649436 moveto
 -68.8750556 -42.5071356 lineto
 -68.5656956 -42.7102596 -68.0171756 -43.0790076 -68.0171756 -43.8071316 curveto
 -68.0171756 -44.7133824 -68.9360156 -45.3321325 -69.8890556 -45.3321325 curveto
 -70.9016156 -45.3321325 -71.7718556 -44.593068 -71.7718556 -43.6040076 curveto
 -71.7718556 -42.6743196 -71.0921756 -41.9227596 -70.3187756 -41.5649436 curveto
closepath
fill
newpath -124.316592 -54.2896181 moveto
 -124.316592 -54.0146261 -124.316592 -54.0036821 -124.554096 -54.0036821 curveto
 -124.841592 -54.3255581 -125.436912 -54.7661861 -126.665032 -54.7661861 curveto
 -126.665032 -55.1114981 lineto
 -126.390036 -55.1114981 -125.794716 -55.1114981 -125.138472 -54.8021261 curveto
 -125.138472 -61.0130609 lineto
 -125.138472 -61.4411837 -125.174412 -61.5849365 -126.222852 -61.5849365 curveto
 -126.593159 -61.5849365 lineto
 -126.593159 -61.9302436 lineto
 -126.271284 -61.9068061 -125.115036 -61.9068061 -124.72128 -61.9068061 curveto
 -124.327536 -61.9068061 -123.18378 -61.9068061 -122.861904 -61.9302436 curveto
 -122.861904 -61.5849365 lineto
 -123.232224 -61.5849365 lineto
 -124.280652 -61.5849365 -124.316592 -61.4411837 -124.316592 -61.0130609 curveto
 -124.316592 -54.2896181 lineto
closepath
 -119.54472 -61.978686 moveto
 -119.54472 -61.2864965 -119.77128 -60.7739981 -120.260352 -60.7739981 curveto
 -120.641592 -60.7739981 -120.832224 -61.0833737 -120.832224 -61.3458737 curveto
 -120.832224 -61.6083737 -120.654096 -61.9302436 -120.247848 -61.9302436 curveto
 -120.093156 -61.9302436 -119.961912 -61.8818085 -119.855652 -61.7755565 curveto
 -119.830656 -61.7521181 -119.819724 -61.7521181 -119.80722 -61.7521181 curveto
 -119.783784 -61.7521181 -119.783784 -61.9177484 -119.783784 -61.978686 curveto
 -119.783784 -62.3708681 -119.855652 -63.1458701 -120.546288 -63.9208661 curveto
 -120.677532 -64.0646261 -120.677532 -64.0880621 -120.677532 -64.1114981 curveto
 -120.677532 -64.1708741 -120.618156 -64.2302501 -120.55878 -64.2302501 curveto
 -120.463464 -64.2302501 -119.54472 -63.3489941 -119.54472 -61.978686 curveto
closepath
 -111.344688 -59.9271221 moveto
 -111.607248 -59.9271221 lineto
 -111.643128 -60.1302461 -111.738528 -60.7864937 -111.857208 -60.9771209 curveto
 -111.941568 -61.0833737 -112.621248 -61.0833737 -112.977528 -61.0833737 curveto
 -115.183728 -61.0833737 lineto
 -114.861888 -60.8099309 -114.133728 -60.0474341 -113.824368 -59.7614981 curveto
 -112.011888 -58.0911821 -111.344688 -57.4724261 -111.344688 -56.2911821 curveto
 -111.344688 -54.9208661 -112.429128 -54.0036821 -113.811888 -54.0036821 curveto
 -115.194768 -54.0036821 -116.005656 -55.1833661 -116.005656 -56.2083701 curveto
 -116.005656 -56.8161821 -115.480608 -56.8161821 -115.446288 -56.8161821 curveto
 -115.194768 -56.8161821 -114.885288 -56.6380541 -114.885288 -56.2568141 curveto
 -114.885288 -55.9224341 -115.111848 -55.6958741 -115.446288 -55.6958741 curveto
 -115.552488 -55.6958741 -115.577568 -55.6958741 -115.611888 -55.7083661 curveto
 -115.385328 -54.8974301 -114.741648 -54.3489941 -113.968128 -54.3489941 curveto
 -112.954128 -54.3489941 -112.333728 -55.1958701 -112.333728 -56.2911821 curveto
 -112.333728 -57.3052541 -112.918128 -58.1864981 -113.597808 -58.9505621 curveto
 -116.005656 -61.6443065 lineto
 -116.005656 -61.9302436 lineto
 -111.655608 -61.9302436 lineto
 -111.344688 -59.9271221 lineto
closepath
fill
newpath -115.618671 -78.0375407 moveto
 -115.999911 -78.1094207 -116.142111 -78.3953567 -116.142111 -78.6219287 curveto
 -116.142111 -78.9078647 -115.917111 -79.0031687 -115.749915 -79.0031687 curveto
 -115.392111 -79.0031687 -115.142103 -78.6937967 -115.142103 -78.3719207 curveto
 -115.142103 -77.8719287 -115.713975 -77.6453567 -116.213979 -77.6453567 curveto
 -116.942103 -77.6453567 -117.346791 -78.3594287 -117.454611 -78.5859887 curveto
 -117.728043 -77.6922407 -118.467111 -77.6453567 -118.681167 -77.6453567 curveto
 -119.898351 -77.6453567 -120.542104 -79.2063047 -120.542104 -79.4688047 curveto
 -120.542104 -79.5156767 -120.493666 -79.5750407 -120.410854 -79.5750407 curveto
 -120.315541 -79.5750407 -120.290544 -79.5047327 -120.267106 -79.4563007 curveto
 -119.862411 -78.1328567 -119.063979 -77.8828607 -118.717107 -77.8828607 curveto
 -118.181163 -77.8828607 -118.073355 -78.3844247 -118.073355 -78.6703607 curveto
 -118.073355 -78.9328607 -118.145223 -79.2063047 -118.288983 -79.7781767 curveto
 -118.693671 -81.4109807 lineto
 -118.873359 -82.1266139 -119.218671 -82.7828637 -119.849919 -82.7828637 curveto
 -119.909295 -82.7828637 -120.207728 -82.7828637 -120.45773 -82.6281767 curveto
 -120.029607 -82.5438011 -119.934291 -82.1859839 -119.934291 -82.0437983 curveto
 -119.934291 -81.8047367 -120.112418 -81.6625487 -120.338978 -81.6625487 curveto
 -120.624916 -81.6625487 -120.934291 -81.9125483 -120.934291 -82.2937967 curveto
 -120.934291 -82.7937987 -120.374918 -83.0203588 -119.862411 -83.0203588 curveto
 -119.290539 -83.0203588 -118.884291 -82.5672383 -118.634295 -82.0797383 curveto
 -118.443663 -82.7828637 -117.846795 -83.0203588 -117.406167 -83.0203588 curveto
 -116.190543 -83.0203588 -115.546791 -81.4594247 -115.546791 -81.1969247 curveto
 -115.546791 -81.1375487 -115.595223 -81.0891047 -115.665543 -81.0891047 curveto
 -115.773351 -81.0891047 -115.785855 -81.1500407 -115.821783 -81.2453687 curveto
 -116.142111 -82.2937967 -116.834295 -82.7828637 -117.370227 -82.7828637 curveto
 -117.787419 -82.7828637 -118.013979 -82.4719211 -118.013979 -81.9844211 curveto
 -118.013979 -81.7219211 -117.967107 -81.5313047 -117.776475 -80.7438047 curveto
 -117.359295 -79.1234807 lineto
 -117.179607 -78.4078607 -116.774919 -77.8828607 -116.226483 -77.8828607 curveto
 -116.203047 -77.8828607 -115.868667 -77.8828607 -115.618671 -78.0375407 curveto
closepath
fill
newpath -1.18974598e-13 137.724764 moveto
 -96.8953407 -36.1107614 lineto
 118.16505 -28.1840089 lineto
 -1.18974598e-13 137.724764 lineto
closepath
stroke
newpath -36.5642795 28.2754075 moveto
 -2.35182866 20.6848051 lineto
 -2.31807035 -22.1156816 lineto
 -36.0540803 -13.4365624 lineto
 -36.5642795 28.2754075 lineto
closepath
[4.063013712 4.063013712] 0.000000000 setdash
stroke
newpath -36.5642795 28.2754075 moveto
 -1.15223146e-13 40.0146275 lineto
 33.6442155 33.1015313 lineto
 -2.35182866 20.6848051 lineto
[4.104706928 4.104706928] 0.000000000 setdash
stroke
newpath 33.6442155 33.1015313 moveto
 33.1833359 -7.91468743 lineto
 -2.31807035 -22.1156816 lineto
[4.171323841 4.171323841] 0.000000000 setdash
stroke
newpath -2.35182866 20.6848051 moveto
 -2.35182866 20.6848051 lineto
1 0 0 setrgbcolor
3 Setlinewidth
[] 0.000000000 setdash
stroke
newpath -10.1816668 13.7971709 moveto
 -8.17853079 13.7971709 lineto
 -6.53322279 13.7971709 -4.88790279 15.0127949 -4.88790279 16.3721789 curveto
 -4.88790279 17.3018669 -5.67540279 18.1487309 -7.17697479 18.1487309 curveto
 -10.8613468 18.1487309 lineto
 -11.0879068 18.1487309 -11.1941668 18.1487309 -11.1941668 17.9221709 curveto
 -11.1941668 17.8018589 -11.0879068 17.8018589 -10.9082308 17.8018589 curveto
 -10.1816668 17.8018589 -10.1816668 17.7065549 -10.1816668 17.5752989 curveto
 -10.1816668 17.5518629 -10.1816668 17.4799829 -10.2285388 17.3018669 curveto
 -11.8379068 10.8893585 lineto
 -11.9457268 10.4721713 -11.9691628 10.3518629 -12.803536 10.3518629 curveto
 -13.0300996 10.3518629 -13.1488504 10.3518629 -13.1488504 10.1377985 curveto
 -13.1488504 10.0065485 -13.0425976 10.0065485 -12.970726 10.0065485 curveto
 -12.7441612 10.0065485 -12.5050948 10.029986 -12.2800948 10.029986 curveto
 -10.8847828 10.029986 lineto
 -10.6582228 10.029986 -10.4082268 10.0065485 -10.1816668 10.0065485 curveto
 -10.0863508 10.0065485 -9.95509479 10.0065485 -9.95509479 10.2331085 curveto
 -9.95509479 10.3518629 -10.0613428 10.3518629 -10.2410308 10.3518629 curveto
 -10.9566628 10.3518629 -10.9675948 10.4362385 -10.9675948 10.5549857 curveto
 -10.9675948 10.6143629 -10.9566628 10.6971713 -10.9441588 10.7581085 curveto
 -10.1816668 13.7971709 lineto
closepath
 -9.32228679 17.3377949 moveto
 -9.21603879 17.7784229 -9.16759479 17.8018589 -8.70353079 17.8018589 curveto
 -7.52384679 17.8018589 lineto
 -6.62853879 17.8018589 -5.88947079 17.5159229 -5.88947079 16.6221749 curveto
 -5.88947079 16.3128029 -6.04416279 15.2987309 -6.59259879 14.7502949 curveto
 -6.79572279 14.5362389 -7.36759479 14.0831189 -8.45353479 14.0831189 curveto
 -10.1332228 14.0831189 lineto
 -9.32228679 17.3377949 lineto
closepath
0 setgray
0.5 Setlinewidth
fill
grestore
showpage
%%EOF
